Making Machine Learning Fast and Interpretable
…
```
##  C index 
## 0.829693
```

---

```r
enframe(orsf_vi(fit))
```

```
## # A tibble: 27 x 2
##    name       value
##    <chr>      <dbl>
##  1 NTproBNP 0.0135 
##  2 Age      0.0135 
##  3 Smoking  0.00544
##  4 FPG      0.00529
##  5 CRP      0.00278
##  6 CHF      0.00276
##  7 BMI      0.00276
##  8 SBP      0.00213
##  9 HDL      0.00193
## 10 QRS      0.00176
## # ... with 17 more rows
```
…
```r
pd <- fit %>% 
 orsf_pd_oob(
  pred_type = 'risk',
  pred_horizon = 10,
  pred_spec = list(Sex = c("F","M"), 
                   NTproBNP = seq(log(20), log(210), by = .2))
 )

as_tibble(pd)
```

```
## # A tibble: 24 x 7
##    pred_horizon Sex   NTproBNP   mean     lwr   medn   upr
##           <dbl> <fct>    <dbl>  <dbl>   <dbl>  <dbl> <dbl>
##  1           10 F         3.00 0.0535 0.00195 0.0225 0.288
##  2           10 M         3.00 0.0537 0.00159 0.0224 0.283
##  3           10 F         3.20 0.0544 0.00198 0.0226 0.293
##  4           10 M         3.20 0.0549 0.00163 0.0229 0.292
##  5           10 F         3.40 0.0557 0.00200 0.0231 0.299
##  6           10 M         3.40 0.0565 0.00168 0.0237 0.300
##  7           10 F         3.60 0.0573 0.00206 0.0238 0.305
##  8           10 M         3.60 0.0585 0.00176 0.0253 0.310
##  9           10 F         3.80 0.0592 0.00216 0.0249 0.312
## 10           10 M         3.80 0.0611 0.00190 0.0274 0.319
## # ... with 14 more rows
```
…
